\relax 
\AC@reset@newl@bel
\citation{DBLP:journals/corr/KanskySMELLDSPG17}
\citation{chaslot_winands_uiterwijk_herik_bouzy_2007}
\citation{SUTTON1999181}
\bibstyle{unsrt5}
\bibdata{references.bib}
\bibcite{DBLP:journals/corr/KanskySMELLDSPG17}{{1}{}{{}}{{}}}
\bibcite{chaslot_winands_uiterwijk_herik_bouzy_2007}{{2}{}{{}}{{}}}
\bibcite{SUTTON1999181}{{3}{}{{}}{{}}}
\newacro{AC}[AC]{Arrenhius \& Current}
\newacro{AER}[AER]{Address Event Representation}
\newacro{AEX}[AEX]{AER EXtension board}
\newacro{AMDA}[AMDA]{``AER Motherboard with D/A converters''}
\newacro{API}[API]{Application Programming Interface}
\newacro{BM}[BM]{Boltzmann Machine}
\newacro{CAVIAR}[CAVIAR]{Convolution AER Vision Architecture for Real-Time}
\newacro{CCN}[CCN]{Cooperative and Competitive Network}
\newacro{CD}[CD]{Contrastive Divergence}
\newacro{eCD}[eCD]{event-driven Contrastive Divergence}
\newacro{CMOS}[CMOS]{Complementary Metal--Oxide--Semiconductor}
\newacro{COTS}[COTS]{Commercial Off-The-Shelf}
\newacro{CPU}[CPU]{Central Processing Unit}
\newacro{CV}[CV]{Coefficient of Variation}
\newacro{CV}[CV]{Coefficient of Variation}
\newacro{DAC}[DAC]{Digital--to--Analog}
\newacro{DBN}[DBN]{Deep Belief Network}
\newacro{DFA}[DFA]{Deterministic Finite Automaton}
\newacro{DFA}[DFA]{Deterministic Finite Automaton}
\newacro{divmod3}[DIVMOD3]{divisibility of a number by 3}
\newacro{DPE}[DPE]{Dynamic Parameter Estimation}
\newacro{DPI}[DPI]{Differential-Pair Integrator}
\newacro{DSP}[DSP]{Digital Signal Processor}
\newacro{DVS}[DVS]{Dynamic Vision Sensor}
\newacro{EDVAC}[EDVAC]{Electronic Discrete Variable Automatic Computer}
\newacro{EIF}[EI\&F]{Exponential Integrate \& Fire}
\newacro{EIN}[EIN]{Excitatory--Inhibitory Network}
\newacro{EPSC}[EPSC]{Excitatory Post-Synaptic Current}
\newacro{EPSP}[EPSP]{Excitatory Post--Synaptic Potential}
\newacro{FPGA}[FPGA]{Field Programmable Gate Array}
\newacro{FSM}[FSM]{Finite State Machine}
\newacro{GPU}[GPU]{Graphical Processing Unit}
\newacro{HAL}[HAL]{Hardware Abstraction Layer}
\newacro{HH}[H\&H]{Hodgkin \& Huxley}
\newacro{HMM}[HMM]{Hidden Markov Model}
\newacro{HW}[HW]{Hardware}
\newacro{hWTA}[hWTA]{Hard Winner--Take--All}
\newacro{IF2DWTA}[IF2DWTA]{Integrate \& Fire 2--Dimensional WTA}
\newacro{IF}[I\&F]{Integrate \& Fire}
\newacro{IFSLWTA}[IFSLWTA]{Integrate \& Fire Stop Learning WTA}
\newacro{INCF}[INCF]{International Neuroinformatics Coordinating Facility}
\newacro{INI}[INI]{Institute of Neuroinformatics}
\newacro{IO}[IO]{Input-Output}
\newacro{IPSC}[IPSC]{Inhibitory Post-Synaptic Current}
\newacro{ISI}[ISI]{Inter--Spike Interval}
\newacro{JFLAP}[JFLAP]{Java - Formal Languages and Automata Package}
\newacro{LIF}[LI\&F]{Linear Integrate \& Fire}
\newacro{LSM}[LSM]{Liquid State Machine}
\newacro{LTD}[LTD]{Long-Term Depression}
\newacro{LTI}[LTI]{Linear Time-Invariant}
\newacro{LTP}[LTP]{Long-Term Potentiation}
\newacro{LTU}[LTU]{Linear Threshold Unit}
\newacro{MCMC}[MCMC]{Markov Chain Monte Carlo}
\newacro{MCTS}[MCTS]{Monte Carlo Tree Search}
\newacro{NHML}[NHML]{Neuromorphic Hardware Mark-up Language}
\newacro{NMDA}[NMDA]{NMDA}
\newacro{NME}[NE]{Neuromorphic Engineering}
\newacro{PCB}[PCB]{Printed Circuit Board}
\newacro{PRC}[PRC]{Phase Response Curve}
\newacro{PSC}[PSC]{Post-Synaptic Current}
\newacro{PSP}[PSP]{Post--Synaptic Potential}
\newacro{RI}[KL]{Kullback-Leibler}
\newacro{RRAM}[RRAM]{Resistive Random-Access Memory}
\newacro{RBM}[RBM]{Restricted Boltzmann Machine}
\newacro{ROC}[ROC]{Receiver Operator Characteristic}
\newacro{SAC}[SAC]{Selective Attention Chip}
\newacro{SSM}[SSM]{Synaptic Sampling Machine}
\newacro{SCD}[SCD]{Spike-Based Contrastive Divergence}
\newacro{SCX}[SCX]{Silicon CorteX}
\newacro{STDP}[STDP]{Spike Timing Dependent Plasticity}
\newacro{SW}[SW]{Software}
\newacro{sWTA}[SWTA]{Soft Winner--Take--All}
\newacro{VHDL}[VHDL]{VHSIC Hardware Description Language}
\newacro{VLSI}[VLSI]{Very Large Scale Integration}
\newacro{WTA}[WTA]{Winner--Take--All}
\newacro{XML}[XML]{eXtensible Mark-up Language}
\pgfsyspdfmark {pgfid1}{1822154}{839114}
\providecommand\NAT@force@numbers{}\NAT@force@numbers
