\relax 
\providecommand\hyper@newdestlabel[2]{}
\providecommand\HyperFirstAtBeginDocument{\AtBeginDocument}
\HyperFirstAtBeginDocument{\ifx\hyper@anchor\@undefined
\global\let\oldcontentsline\contentsline
\gdef\contentsline#1#2#3#4{\oldcontentsline{#1}{#2}{#3}}
\global\let\oldnewlabel\newlabel
\gdef\newlabel#1#2{\newlabelxx{#1}#2}
\gdef\newlabelxx#1#2#3#4#5#6{\oldnewlabel{#1}{{#2}{#3}}}
\AtEndDocument{\ifx\hyper@anchor\@undefined
\let\contentsline\oldcontentsline
\let\newlabel\oldnewlabel
\fi}
\fi}
\global\let\hyper@last\relax 
\gdef\HyperFirstAtBeginDocument#1{#1}
\providecommand*\HyPL@Entry[1]{}
\HyPL@Entry{0<</S/D>>}
\@writefile{toc}{\contentsline {section}{\numberline {1}Background}{1}{section.1}\protected@file@percent }
\newlabel{algo:global}{{1}{2}{Background}{section.1}{}}
\@writefile{loa}{\contentsline {algorithm}{\numberline {1}{\ignorespaces Pseudocode for each hierarchical learner thread}}{2}{algorithm.1}\protected@file@percent }
\newlabel{alg1}{{1}{2}{Background}{algorithm.1}{}}
\bibdata{references}
\bibstyle{unsrt}
\@writefile{loa}{\contentsline {algorithm}{\numberline {2}{\ignorespaces Pseudocode for manager function}}{3}{algorithm.2}\protected@file@percent }
\newlabel{algo:manager}{{2}{3}{Background}{algorithm.2}{}}
\@writefile{toc}{\contentsline {section}{\numberline {2}Progress Summary}{3}{section.2}\protected@file@percent }
\@writefile{toc}{\contentsline {subsection}{\numberline {2.1}Extending experimental results}{3}{subsection.2.1}\protected@file@percent }
\@writefile{toc}{\contentsline {subsection}{\numberline {2.2}Learning the environment transition model}{3}{subsection.2.2}\protected@file@percent }
\@writefile{toc}{\contentsline {subsection}{\numberline {2.3}Learning the environment latent space encoding}{3}{subsection.2.3}\protected@file@percent }
