<?xml version="1.0" encoding="UTF-8" standalone="no"?>
<!-- Created with Inkscape (http://www.inkscape.org/) -->

<svg
   xmlns:dc="http://purl.org/dc/elements/1.1/"
   xmlns:cc="http://creativecommons.org/ns#"
   xmlns:rdf="http://www.w3.org/1999/02/22-rdf-syntax-ns#"
   xmlns:svg="http://www.w3.org/2000/svg"
   xmlns="http://www.w3.org/2000/svg"
   xmlns:sodipodi="http://sodipodi.sourceforge.net/DTD/sodipodi-0.dtd"
   xmlns:inkscape="http://www.inkscape.org/namespaces/inkscape"
   width="179.75645mm"
   height="53.396587mm"
   viewBox="0 0 179.75645 53.396587"
   version="1.1"
   id="svg8"
   inkscape:version="0.92.4 (5da689c313, 2019-01-14)"
   sodipodi:docname="combined_network.svg">
  <defs
     id="defs2">
    <marker
       inkscape:stockid="Arrow2Lend"
       orient="auto"
       refY="0"
       refX="0"
       id="marker7306"
       style="overflow:visible"
       inkscape:isstock="true">
      <path
         inkscape:connector-curvature="0"
         id="path7304"
         style="fill:#000000;fill-opacity:1;fill-rule:evenodd;stroke:#000000;stroke-width:0.625;stroke-linejoin:round;stroke-opacity:1"
         d="M 8.7185878,4.0337352 -2.2072895,0.01601326 8.7185884,-4.0017078 c -1.7454984,2.3720609 -1.7354408,5.6174519 -6e-7,8.035443 z"
         transform="matrix(-1.1,0,0,-1.1,-1.1,0)" />
    </marker>
    <marker
       inkscape:stockid="Arrow2Lend"
       orient="auto"
       refY="0"
       refX="0"
       id="marker5757"
       style="overflow:visible"
       inkscape:isstock="true">
      <path
         id="path5755"
         style="fill:#000000;fill-opacity:1;fill-rule:evenodd;stroke:#000000;stroke-width:0.625;stroke-linejoin:round;stroke-opacity:1"
         d="M 8.7185878,4.0337352 -2.2072895,0.01601326 8.7185884,-4.0017078 c -1.7454984,2.3720609 -1.7354408,5.6174519 -6e-7,8.035443 z"
         transform="matrix(-1.1,0,0,-1.1,-1.1,0)"
         inkscape:connector-curvature="0" />
    </marker>
    <marker
       inkscape:isstock="true"
       style="overflow:visible"
       id="marker5175"
       refX="0"
       refY="0"
       orient="auto"
       inkscape:stockid="Arrow2Lend">
      <path
         transform="matrix(-1.1,0,0,-1.1,-1.1,0)"
         d="M 8.7185878,4.0337352 -2.2072895,0.01601326 8.7185884,-4.0017078 c -1.7454984,2.3720609 -1.7354408,5.6174519 -6e-7,8.035443 z"
         style="fill:#000000;fill-opacity:1;fill-rule:evenodd;stroke:#000000;stroke-width:0.625;stroke-linejoin:round;stroke-opacity:1"
         id="path5173"
         inkscape:connector-curvature="0" />
    </marker>
    <marker
       inkscape:stockid="Arrow2Lend"
       orient="auto"
       refY="0"
       refX="0"
       id="marker4725"
       style="overflow:visible"
       inkscape:isstock="true"
       inkscape:collect="always">
      <path
         id="path4723"
         style="fill:#000000;fill-opacity:1;fill-rule:evenodd;stroke:#000000;stroke-width:0.625;stroke-linejoin:round;stroke-opacity:1"
         d="M 8.7185878,4.0337352 -2.2072895,0.01601326 8.7185884,-4.0017078 c -1.7454984,2.3720609 -1.7354408,5.6174519 -6e-7,8.035443 z"
         transform="matrix(-1.1,0,0,-1.1,-1.1,0)"
         inkscape:connector-curvature="0" />
    </marker>
    <marker
       inkscape:isstock="true"
       style="overflow:visible"
       id="marker4641"
       refX="0"
       refY="0"
       orient="auto"
       inkscape:stockid="Arrow2Lend"
       inkscape:collect="always">
      <path
         transform="matrix(-1.1,0,0,-1.1,-1.1,0)"
         d="M 8.7185878,4.0337352 -2.2072895,0.01601326 8.7185884,-4.0017078 c -1.7454984,2.3720609 -1.7354408,5.6174519 -6e-7,8.035443 z"
         style="fill:#000000;fill-opacity:1;fill-rule:evenodd;stroke:#000000;stroke-width:0.625;stroke-linejoin:round;stroke-opacity:1"
         id="path4639"
         inkscape:connector-curvature="0" />
    </marker>
    <marker
       inkscape:stockid="Arrow2Lend"
       orient="auto"
       refY="0"
       refX="0"
       id="marker4095"
       style="overflow:visible"
       inkscape:isstock="true"
       inkscape:collect="always">
      <path
         id="path4093"
         style="fill:#000000;fill-opacity:1;fill-rule:evenodd;stroke:#000000;stroke-width:0.625;stroke-linejoin:round;stroke-opacity:1"
         d="M 8.7185878,4.0337352 -2.2072895,0.01601326 8.7185884,-4.0017078 c -1.7454984,2.3720609 -1.7354408,5.6174519 -6e-7,8.035443 z"
         transform="matrix(-1.1,0,0,-1.1,-1.1,0)"
         inkscape:connector-curvature="0" />
    </marker>
    <marker
       inkscape:isstock="true"
       style="overflow:visible"
       id="marker3699"
       refX="0"
       refY="0"
       orient="auto"
       inkscape:stockid="Arrow2Lend"
       inkscape:collect="always">
      <path
         transform="matrix(-1.1,0,0,-1.1,-1.1,0)"
         d="M 8.7185878,4.0337352 -2.2072895,0.01601326 8.7185884,-4.0017078 c -1.7454984,2.3720609 -1.7354408,5.6174519 -6e-7,8.035443 z"
         style="fill:#000000;fill-opacity:1;fill-rule:evenodd;stroke:#000000;stroke-width:0.625;stroke-linejoin:round;stroke-opacity:1"
         id="path3697"
         inkscape:connector-curvature="0" />
    </marker>
    <marker
       inkscape:stockid="Arrow2Lend"
       orient="auto"
       refY="0"
       refX="0"
       id="marker3159"
       style="overflow:visible"
       inkscape:isstock="true"
       inkscape:collect="always">
      <path
         id="path3157"
         style="fill:#000000;fill-opacity:1;fill-rule:evenodd;stroke:#000000;stroke-width:0.625;stroke-linejoin:round;stroke-opacity:1"
         d="M 8.7185878,4.0337352 -2.2072895,0.01601326 8.7185884,-4.0017078 c -1.7454984,2.3720609 -1.7354408,5.6174519 -6e-7,8.035443 z"
         transform="matrix(-1.1,0,0,-1.1,-1.1,0)"
         inkscape:connector-curvature="0" />
    </marker>
    <marker
       inkscape:stockid="Arrow2Lend"
       orient="auto"
       refY="0"
       refX="0"
       id="Arrow2Lend"
       style="overflow:visible"
       inkscape:isstock="true"
       inkscape:collect="always">
      <path
         id="path2036"
         style="fill:#000000;fill-opacity:1;fill-rule:evenodd;stroke:#000000;stroke-width:0.625;stroke-linejoin:round;stroke-opacity:1"
         d="M 8.7185878,4.0337352 -2.2072895,0.01601326 8.7185884,-4.0017078 c -1.7454984,2.3720609 -1.7354408,5.6174519 -6e-7,8.035443 z"
         transform="matrix(-1.1,0,0,-1.1,-1.1,0)"
         inkscape:connector-curvature="0" />
    </marker>
    <marker
       inkscape:stockid="Arrow1Mend"
       orient="auto"
       refY="0"
       refX="0"
       id="Arrow1Mend"
       style="overflow:visible"
       inkscape:isstock="true">
      <path
         id="path2024"
         d="M 0,0 5,-5 -12.5,0 5,5 Z"
         style="fill:#000000;fill-opacity:1;fill-rule:evenodd;stroke:#000000;stroke-width:1.00000003pt;stroke-opacity:1"
         transform="matrix(-0.4,0,0,-0.4,-4,0)"
         inkscape:connector-curvature="0" />
    </marker>
    <marker
       inkscape:stockid="Arrow1Lend"
       orient="auto"
       refY="0"
       refX="0"
       id="marker2327"
       style="overflow:visible"
       inkscape:isstock="true">
      <path
         id="path2325"
         d="M 0,0 5,-5 -12.5,0 5,5 Z"
         style="fill:#000000;fill-opacity:1;fill-rule:evenodd;stroke:#000000;stroke-width:1.00000003pt;stroke-opacity:1"
         transform="matrix(-0.8,0,0,-0.8,-10,0)"
         inkscape:connector-curvature="0" />
    </marker>
    <marker
       inkscape:stockid="Arrow1Lend"
       orient="auto"
       refY="0"
       refX="0"
       id="marker2299"
       style="overflow:visible"
       inkscape:isstock="true">
      <path
         id="path2297"
         d="M 0,0 5,-5 -12.5,0 5,5 Z"
         style="fill:#000000;fill-opacity:1;fill-rule:evenodd;stroke:#000000;stroke-width:1.00000003pt;stroke-opacity:1"
         transform="matrix(-0.8,0,0,-0.8,-10,0)"
         inkscape:connector-curvature="0" />
    </marker>
    <marker
       inkscape:stockid="Arrow1Lend"
       orient="auto"
       refY="0"
       refX="0"
       id="Arrow1Lend"
       style="overflow:visible"
       inkscape:isstock="true">
      <path
         id="path2018"
         d="M 0,0 5,-5 -12.5,0 5,5 Z"
         style="fill:#000000;fill-opacity:1;fill-rule:evenodd;stroke:#000000;stroke-width:1.00000003pt;stroke-opacity:1"
         transform="matrix(-0.8,0,0,-0.8,-10,0)"
         inkscape:connector-curvature="0" />
    </marker>
  </defs>
  <sodipodi:namedview
     id="base"
     pagecolor="#ffffff"
     bordercolor="#666666"
     borderopacity="1.0"
     inkscape:pageopacity="0.0"
     inkscape:pageshadow="2"
     inkscape:zoom="1.4"
     inkscape:cx="281.01865"
     inkscape:cy="129.90209"
     inkscape:document-units="mm"
     inkscape:current-layer="layer1"
     showgrid="false"
     inkscape:window-width="1920"
     inkscape:window-height="986"
     inkscape:window-x="-11"
     inkscape:window-y="-11"
     inkscape:window-maximized="1"
     fit-margin-top="0"
     fit-margin-left="0"
     fit-margin-right="0"
     fit-margin-bottom="0" />
  <metadata
     id="metadata5">
    <rdf:RDF>
      <cc:Work
         rdf:about="">
        <dc:format>image/svg+xml</dc:format>
        <dc:type
           rdf:resource="http://purl.org/dc/dcmitype/StillImage" />
        <dc:title></dc:title>
      </cc:Work>
    </rdf:RDF>
  </metadata>
  <g
     inkscape:label="Layer 1"
     inkscape:groupmode="layer"
     id="layer1"
     transform="translate(-27.956966,-8.1600588)">
    <rect
       style="opacity:1;fill:none;fill-opacity:1;stroke:#000000;stroke-width:0.26499999;stroke-miterlimit:4;stroke-dasharray:none;stroke-dashoffset:0;stroke-opacity:1"
       id="rect815"
       width="9.7349997"
       height="9.7350006"
       x="28.089466"
       y="30.764927" />
    <text
       id="text823"
       y="36.045666"
       x="31.903801"
       style="font-style:normal;font-variant:normal;font-weight:normal;font-stretch:normal;font-size:3.52777767px;line-height:1.25;font-family:'Nimbus Roman';-inkscape-font-specification:'Nimbus Roman, ';letter-spacing:0px;word-spacing:0px;fill:#000000;fill-opacity:1;stroke:none;stroke-width:0.26458332"
       xml:space="preserve"><tspan
         style="font-style:italic;stroke-width:0.26458332"
         y="36.045666"
         x="31.903801"
         id="tspan821"
         sodipodi:role="line">s<tspan
   id="tspan7458"
   style="font-size:64.99999762%;baseline-shift:sub">t</tspan></tspan></text>
    <g
       id="g1940"
       transform="translate(2.6458334,2.2038782)">
      <rect
         style="opacity:1;fill:#e6e6e6;fill-opacity:1;stroke:#000000;stroke-width:0.26499999;stroke-miterlimit:4;stroke-dasharray:none;stroke-dashoffset:0;stroke-opacity:1"
         id="rect868"
         width="34.735001"
         height="9.7350006"
         x="41.020447"
         y="28.561049" />
      <flowRoot
         transform="translate(-52.518463,-20.446119)"
         xml:space="preserve"
         id="flowRoot892"
         style="font-style:normal;font-variant:normal;font-weight:normal;font-stretch:normal;font-size:3.52777767px;line-height:1.25;font-family:'Nimbus Roman';-inkscape-font-specification:'Nimbus Roman, ';letter-spacing:0px;word-spacing:0px;fill:#000000;fill-opacity:1;stroke:none;stroke-width:0.26458332"><flowRegion
           style="stroke-width:0.26458332"
           id="flowRegion894"><rect
             style="stroke-width:0.26458332"
             id="rect896"
             width="33.408691"
             height="8.6862574"
             x="94.212509"
             y="49.775688" /></flowRegion><flowPara
           style="font-style:normal;font-variant:normal;font-weight:normal;font-stretch:normal;font-size:3.52777767px;font-family:'Nimbus Roman';-inkscape-font-specification:'Nimbus Roman, Normal';font-variant-ligatures:normal;font-variant-caps:normal;font-variant-numeric:normal;font-feature-settings:normal;text-align:center;writing-mode:lr-tb;text-anchor:middle;stroke-width:0.26458332"
           id="flowPara898">FC layer with 32 units, relu activation fn</flowPara></flowRoot>    </g>
    <g
       id="g1947"
       transform="translate(2.1166667,2.3375147)">
      <rect
         y="28.427412"
         x="82.313591"
         height="9.7350006"
         width="34.735001"
         id="rect931"
         style="opacity:1;fill:#e6e6e6;fill-opacity:1;stroke:#000000;stroke-width:0.26499999;stroke-miterlimit:4;stroke-dasharray:none;stroke-dashoffset:0;stroke-opacity:1" />
      <flowRoot
         style="font-style:normal;font-variant:normal;font-weight:normal;font-stretch:normal;font-size:3.52777767px;line-height:1.25;font-family:'Nimbus Roman';-inkscape-font-specification:'Nimbus Roman, ';letter-spacing:0px;word-spacing:0px;fill:#000000;fill-opacity:1;stroke:none;stroke-width:0.26458332"
         id="flowRoot939"
         xml:space="preserve"
         transform="translate(-11.225321,-20.579754)"><flowRegion
           id="flowRegion935"
           style="stroke-width:0.26458332"><rect
             y="49.775688"
             x="94.212509"
             height="8.6862574"
             width="33.408691"
             id="rect933"
             style="stroke-width:0.26458332" /></flowRegion><flowPara
           id="flowPara937"
           style="font-style:normal;font-variant:normal;font-weight:normal;font-stretch:normal;font-size:3.52777767px;font-family:'Nimbus Roman';-inkscape-font-specification:'Nimbus Roman, Normal';font-variant-ligatures:normal;font-variant-caps:normal;font-variant-numeric:normal;font-feature-settings:normal;text-align:center;writing-mode:lr-tb;text-anchor:middle;stroke-width:0.26458332">FC layer with 16 units, relu activation fn</flowPara></flowRoot>    </g>
    <g
       id="g7218"
       transform="translate(-20.899404,-10.054167)">
      <rect
         style="opacity:1;fill:#e6e6e6;fill-opacity:1;stroke:#000000;stroke-width:0.26499999;stroke-miterlimit:4;stroke-dasharray:none;stroke-dashoffset:0;stroke-opacity:1"
         id="rect967"
         width="19.735001"
         height="9.7350006"
         x="187.17776"
         y="23.11414" />
      <text
         id="text987"
         y="29.161682"
         x="191.00342"
         style="font-style:normal;font-variant:normal;font-weight:normal;font-stretch:normal;font-size:3.52777767px;line-height:1.25;font-family:'Nimbus Roman';-inkscape-font-specification:'Nimbus Roman, ';letter-spacing:0px;word-spacing:0px;fill:#000000;fill-opacity:1;stroke:none;stroke-width:0.26458332"
         xml:space="preserve"><tspan
           style="stroke-width:0.26458332"
           y="29.161682"
           x="191.00342"
           id="tspan985"
           sodipodi:role="line">Softmax</tspan></text>
    </g>
    <g
       id="g1067"
       transform="translate(-0.26190338,-10.054167)">
      <rect
         style="opacity:1;fill:none;fill-opacity:1;stroke:#000000;stroke-width:0.26499999;stroke-miterlimit:4;stroke-dasharray:none;stroke-dashoffset:0;stroke-opacity:1"
         id="rect1033"
         width="9.7349997"
         height="9.7350006"
         x="191.75783"
         y="23.11414" />
      <text
         id="text1053"
         y="28.394125"
         x="195.37402"
         style="font-style:normal;font-variant:normal;font-weight:normal;font-stretch:normal;font-size:3.52777767px;line-height:1.25;font-family:'Nimbus Roman';-inkscape-font-specification:'Nimbus Roman, ';letter-spacing:0px;word-spacing:0px;fill:#000000;fill-opacity:1;stroke:none;stroke-width:0.26458332"
         xml:space="preserve"><tspan
           style="font-style:italic;stroke-width:0.26458332"
           y="28.394125"
           x="195.37402"
           id="tspan1051"
           sodipodi:role="line">o<tspan
   style="font-size:64.99999762%;baseline-shift:sub"
   id="tspan1057">t</tspan></tspan></text>
    </g>
    <rect
       y="13.059969"
       x="125.61125"
       height="9.7350006"
       width="34.735001"
       id="rect943"
       style="opacity:1;fill:#e6e6e6;fill-opacity:1;stroke:#000000;stroke-width:0.26499999;stroke-miterlimit:4;stroke-dasharray:none;stroke-dashoffset:0;stroke-opacity:1" />
    <flowRoot
       style="font-style:normal;font-variant:normal;font-weight:normal;font-stretch:normal;font-size:3.52777767px;line-height:1.25;font-family:'Nimbus Roman';-inkscape-font-specification:'Nimbus Roman, ';letter-spacing:0px;word-spacing:0px;fill:#000000;fill-opacity:1;stroke:none;stroke-width:0.26458332"
       id="flowRoot951"
       xml:space="preserve"
       transform="translate(32.072343,-35.9472)"><flowRegion
         id="flowRegion947"
         style="stroke-width:0.26458332"><rect
           y="49.775688"
           x="94.212509"
           height="8.6862574"
           width="33.408691"
           id="rect945"
           style="stroke-width:0.26458332" /></flowRegion><flowPara
         id="flowPara949"
         style="font-style:normal;font-variant:normal;font-weight:normal;font-stretch:normal;font-size:3.52777767px;font-family:'Nimbus Roman';-inkscape-font-specification:'Nimbus Roman, Normal';font-variant-ligatures:normal;font-variant-caps:normal;font-variant-numeric:normal;font-feature-settings:normal;text-align:center;writing-mode:lr-tb;text-anchor:middle;stroke-width:0.26458332">FC layer with 5 units, lin activation fn</flowPara></flowRoot>    <g
       id="g1961"
       transform="translate(-0.40090179,-11.159596)">
      <rect
         y="41.924522"
         x="126.01215"
         height="9.7350006"
         width="34.735001"
         id="rect1021"
         style="opacity:1;fill:#e6e6e6;fill-opacity:1;stroke:#000000;stroke-width:0.26499999;stroke-miterlimit:4;stroke-dasharray:none;stroke-dashoffset:0;stroke-opacity:1" />
      <flowRoot
         style="font-style:normal;font-variant:normal;font-weight:normal;font-stretch:normal;font-size:3.52777767px;line-height:1.25;font-family:'Nimbus Roman';-inkscape-font-specification:'Nimbus Roman, ';letter-spacing:0px;word-spacing:0px;fill:#000000;fill-opacity:1;stroke:none;stroke-width:0.26458332"
         id="flowRoot1029"
         xml:space="preserve"
         transform="translate(32.473247,-7.082643)"><flowRegion
           id="flowRegion1025"
           style="stroke-width:0.26458332"><rect
             y="49.775688"
             x="94.212509"
             height="8.6862574"
             width="33.408691"
             id="rect1023"
             style="stroke-width:0.26458332" /></flowRegion><flowPara
           id="flowPara1027"
           style="font-style:normal;font-variant:normal;font-weight:normal;font-stretch:normal;font-size:3.52777767px;font-family:'Nimbus Roman';-inkscape-font-specification:'Nimbus Roman, Normal';font-variant-ligatures:normal;font-variant-caps:normal;font-variant-numeric:normal;font-feature-settings:normal;text-align:center;writing-mode:lr-tb;text-anchor:middle;stroke-width:0.26458332">FC layer with 1 units, lin activation fn</flowPara></flowRoot>    </g>
    <path
       style="fill:none;stroke:#000000;stroke-width:0.26499999;stroke-linecap:butt;stroke-linejoin:miter;stroke-miterlimit:4;stroke-dasharray:none;stroke-opacity:1;marker-end:url(#Arrow2Lend)"
       d="M 37.683669,35.637095 H 43.02906"
       id="path2013"
       inkscape:connector-curvature="0" />
    <path
       style="fill:none;stroke:#000000;stroke-width:0.26499999;stroke-linecap:butt;stroke-linejoin:miter;stroke-miterlimit:4;stroke-dasharray:none;stroke-opacity:1;marker-end:url(#marker3159)"
       d="m 78.710875,35.637095 h 5.345391"
       id="path3155"
       inkscape:connector-curvature="0" />
    <path
       inkscape:connector-curvature="0"
       id="path3695"
       d="m 118.97578,36.912387 6.15083,-18.116368"
       style="fill:none;stroke:#000000;stroke-width:0.26499999;stroke-linecap:butt;stroke-linejoin:miter;stroke-miterlimit:4;stroke-dasharray:none;stroke-opacity:1;marker-end:url(#marker3699)" />
    <path
       style="fill:none;stroke:#000000;stroke-width:0.26499999;stroke-linecap:butt;stroke-linejoin:miter;stroke-miterlimit:4;stroke-dasharray:none;stroke-opacity:1;marker-end:url(#marker4095)"
       d="m 160.09444,17.939046 h 5.3454"
       id="path4091"
       inkscape:connector-curvature="0" />
    <path
       inkscape:connector-curvature="0"
       id="path4637"
       d="m 160.09444,17.939046 h 5.3454"
       style="fill:none;stroke:#000000;stroke-width:0.26499999;stroke-linecap:butt;stroke-linejoin:miter;stroke-miterlimit:4;stroke-dasharray:none;stroke-opacity:1;marker-end:url(#marker4641)" />
    <path
       style="fill:none;stroke:#000000;stroke-width:0.26499999;stroke-linecap:butt;stroke-linejoin:miter;stroke-miterlimit:4;stroke-dasharray:none;stroke-opacity:1;marker-end:url(#marker4725)"
       d="m 185.75219,17.538142 h 5.3454"
       id="path4721"
       inkscape:connector-curvature="0" />
    <path
       inkscape:connector-curvature="0"
       id="path5171"
       d="m 162.47303,35.637095 h 5.3454"
       style="fill:none;stroke:#000000;stroke-width:0.26499999;stroke-linecap:butt;stroke-linejoin:miter;stroke-miterlimit:4;stroke-dasharray:none;stroke-opacity:1;marker-end:url(#marker5175)" />
    <path
       style="fill:none;stroke:#000000;stroke-width:0.26499999;stroke-linecap:butt;stroke-linejoin:miter;stroke-miterlimit:4;stroke-dasharray:none;stroke-opacity:1;marker-end:url(#marker5757)"
       d="m 118.96284,36.24689 6.30875,18.064515"
       id="path5753"
       inkscape:connector-curvature="0" />
    <flowRoot
       transform="translate(32.072343,-42.297198)"
       xml:space="preserve"
       id="flowRoot99"
       style="font-style:normal;font-variant:normal;font-weight:normal;font-stretch:normal;font-size:3.52777767px;line-height:1.25;font-family:'Nimbus Roman';-inkscape-font-specification:'Nimbus Roman, ';letter-spacing:0px;word-spacing:0px;fill:#000000;fill-opacity:1;stroke:none;stroke-width:0.26458332"><flowRegion
         style="stroke-width:0.26458332"
         id="flowRegion95"><rect
           style="stroke-width:0.26458332"
           id="rect93"
           width="33.408691"
           height="8.6862574"
           x="94.212509"
           y="49.775688" /></flowRegion><flowPara
         id="flowPara7740">Policy over options π<flowSpan
   style="font-size:64.99999762%;baseline-shift:sub"
   id="flowSpan7752">Ω</flowSpan></flowPara></flowRoot>    <flowRoot
       style="font-style:normal;font-variant:normal;font-weight:normal;font-stretch:normal;font-size:3.52777767px;line-height:1.25;font-family:'Nimbus Roman';-inkscape-font-specification:'Nimbus Roman, ';letter-spacing:0px;word-spacing:0px;fill:#000000;fill-opacity:1;stroke:none;stroke-width:0.26458332"
       id="flowRoot7750"
       xml:space="preserve"
       transform="translate(35.958495,-23.978491)"><flowRegion
         id="flowRegion7746"
         style="stroke-width:0.26458332"><rect
           y="49.775688"
           x="94.212509"
           height="8.6862574"
           width="33.408691"
           id="rect7744"
           style="stroke-width:0.26458332" /></flowRegion><flowPara
         id="flowPara7756">Options {π<flowSpan
   style="font-size:64.99999762%;baseline-shift:sub"
   id="flowSpan7758">ω</flowSpan>}</flowPara></flowRoot>    <flowRoot
       transform="translate(30.885746,-5.6382868)"
       xml:space="preserve"
       id="flowRoot7780"
       style="font-style:normal;font-variant:normal;font-weight:normal;font-stretch:normal;font-size:3.52777767px;line-height:1.25;font-family:'Nimbus Roman';-inkscape-font-specification:'Nimbus Roman, ';letter-spacing:0px;word-spacing:0px;fill:#000000;fill-opacity:1;stroke:none;stroke-width:0.26458332"><flowRegion
         style="stroke-width:0.26458332"
         id="flowRegion7772"><rect
           style="stroke-width:0.26458332"
           id="rect7770"
           width="41.025871"
           height="8.1517172"
           x="94.212509"
           y="49.775688" /></flowRegion><flowPara
         id="flowPara7778">Termination functions {β<flowSpan
   id="flowSpan7776"
   style="font-size:64.99999762%;baseline-shift:sub">ω</flowSpan>}</flowPara></flowRoot>    <g
       transform="translate(-0.40090179,7.6036895)"
       id="g7792">
      <rect
         style="opacity:1;fill:#e6e6e6;fill-opacity:1;stroke:#000000;stroke-width:0.26499999;stroke-miterlimit:4;stroke-dasharray:none;stroke-dashoffset:0;stroke-opacity:1"
         id="rect7782"
         width="34.735001"
         height="9.7350006"
         x="126.01215"
         y="41.924522" />
      <flowRoot
         transform="translate(32.473247,-7.082643)"
         xml:space="preserve"
         id="flowRoot7790"
         style="font-style:normal;font-variant:normal;font-weight:normal;font-stretch:normal;font-size:3.52777767px;line-height:1.25;font-family:'Nimbus Roman';-inkscape-font-specification:'Nimbus Roman, ';letter-spacing:0px;word-spacing:0px;fill:#000000;fill-opacity:1;stroke:none;stroke-width:0.26458332"><flowRegion
           style="stroke-width:0.26458332"
           id="flowRegion7786"><rect
             style="stroke-width:0.26458332"
             id="rect7784"
             width="33.408691"
             height="8.6862574"
             x="94.212509"
             y="49.775688" /></flowRegion><flowPara
           style="font-style:normal;font-variant:normal;font-weight:normal;font-stretch:normal;font-size:3.52777767px;font-family:'Nimbus Roman';-inkscape-font-specification:'Nimbus Roman, Normal';font-variant-ligatures:normal;font-variant-caps:normal;font-variant-numeric:normal;font-feature-settings:normal;text-align:center;writing-mode:lr-tb;text-anchor:middle;stroke-width:0.26458332"
           id="flowPara7788">FC layer with 1 units, lin activation fn</flowPara></flowRoot>    </g>
    <g
       transform="translate(-18.782736,7.6507872)"
       id="g7800">
      <rect
         y="23.11414"
         x="187.17776"
         height="9.7350006"
         width="19.735001"
         id="rect7794"
         style="opacity:1;fill:#e6e6e6;fill-opacity:1;stroke:#000000;stroke-width:0.26499999;stroke-miterlimit:4;stroke-dasharray:none;stroke-dashoffset:0;stroke-opacity:1" />
      <text
         xml:space="preserve"
         style="font-style:normal;font-variant:normal;font-weight:normal;font-stretch:normal;font-size:3.52777767px;line-height:1.25;font-family:'Nimbus Roman';-inkscape-font-specification:'Nimbus Roman, ';letter-spacing:0px;word-spacing:0px;fill:#000000;fill-opacity:1;stroke:none;stroke-width:0.26458332"
         x="191.00342"
         y="29.161682"
         id="text7798"><tspan
           sodipodi:role="line"
           id="tspan7796"
           x="191.00342"
           y="29.161682"
           style="stroke-width:0.26458332">Softmax</tspan></text>
    </g>
    <g
       transform="translate(3.9714301,7.6507872)"
       id="g7810">
      <rect
         y="23.11414"
         x="191.75783"
         height="9.7350006"
         width="9.7349997"
         id="rect7802"
         style="opacity:1;fill:none;fill-opacity:1;stroke:#000000;stroke-width:0.26499999;stroke-miterlimit:4;stroke-dasharray:none;stroke-dashoffset:0;stroke-opacity:1" />
      <text
         xml:space="preserve"
         style="font-style:normal;font-variant:normal;font-weight:normal;font-stretch:normal;font-size:3.52777767px;line-height:1.25;font-family:'Nimbus Roman';-inkscape-font-specification:'Nimbus Roman, ';letter-spacing:0px;word-spacing:0px;fill:#000000;fill-opacity:1;stroke:none;stroke-width:0.26458332"
         x="195.37402"
         y="28.394125"
         id="text7808"><tspan
           sodipodi:role="line"
           id="tspan7806"
           x="195.37402"
           y="28.394125"
           style="font-style:italic;stroke-width:0.26458332">a<tspan
   id="tspan7804"
   style="font-size:64.99999762%;baseline-shift:sub">t</tspan></tspan></text>
    </g>
    <path
       inkscape:connector-curvature="0"
       id="path7812"
       d="m 189.98555,35.637095 h 5.3454"
       style="fill:none;stroke:#000000;stroke-width:0.26499999;stroke-linecap:butt;stroke-linejoin:miter;stroke-miterlimit:4;stroke-dasharray:none;stroke-opacity:1;marker-end:url(#marker4725)" />
    <g
       id="g7822"
       transform="translate(-23.545246,26.458337)">
      <rect
         style="opacity:1;fill:none;fill-opacity:1;stroke:#000000;stroke-width:0.26499999;stroke-miterlimit:4;stroke-dasharray:none;stroke-dashoffset:0;stroke-opacity:1"
         id="rect7814"
         width="9.7349997"
         height="9.7350006"
         x="191.75783"
         y="23.11414" />
      <text
         id="text7820"
         y="28.394125"
         x="195.37402"
         style="font-style:normal;font-variant:normal;font-weight:normal;font-stretch:normal;font-size:3.52777767px;line-height:1.25;font-family:'Nimbus Roman';-inkscape-font-specification:'Nimbus Roman, ';letter-spacing:0px;word-spacing:0px;fill:#000000;fill-opacity:1;stroke:none;stroke-width:0.26458332"
         xml:space="preserve"><tspan
           style="font-style:italic;stroke-width:0.26458332"
           y="28.394125"
           x="195.37402"
           id="tspan7818"
           sodipodi:role="line">b<tspan
   style="font-size:64.99999762%;baseline-shift:sub"
   id="tspan7816">t</tspan></tspan></text>
    </g>
    <path
       style="fill:none;stroke:#000000;stroke-width:0.26499999;stroke-linecap:butt;stroke-linejoin:miter;stroke-miterlimit:4;stroke-dasharray:none;stroke-opacity:1;marker-end:url(#marker4725)"
       d="m 162.46871,54.050653 h 5.3454"
       id="path7824"
       inkscape:connector-curvature="0" />
    <path
       inkscape:connector-curvature="0"
       id="path7828"
       d="m 119.45671,35.637095 h 5.34539"
       style="fill:none;stroke:#000000;stroke-width:0.26499999;stroke-linecap:butt;stroke-linejoin:miter;stroke-miterlimit:4;stroke-dasharray:none;stroke-opacity:1;marker-end:url(#marker3159)" />
    <g
       transform="translate(0.65743155,-10.101262)"
       id="g7840">
      <rect
         style="opacity:1;fill:#e6e6e6;fill-opacity:1;stroke:#000000;stroke-width:0.26499999;stroke-miterlimit:4;stroke-dasharray:none;stroke-dashoffset:0;stroke-opacity:1"
         id="rect7830"
         width="34.735001"
         height="9.7350006"
         x="126.01215"
         y="41.924522" />
      <flowRoot
         transform="translate(32.473247,-7.082643)"
         xml:space="preserve"
         id="flowRoot7838"
         style="font-style:normal;font-variant:normal;font-weight:normal;font-stretch:normal;font-size:3.52777767px;line-height:1.25;font-family:'Nimbus Roman';-inkscape-font-specification:'Nimbus Roman, ';letter-spacing:0px;word-spacing:0px;fill:#000000;fill-opacity:1;stroke:none;stroke-width:0.26458332"><flowRegion
           style="stroke-width:0.26458332"
           id="flowRegion7834"><rect
             style="stroke-width:0.26458332"
             id="rect7832"
             width="33.408691"
             height="8.6862574"
             x="94.212509"
             y="49.775688" /></flowRegion><flowPara
           style="font-style:normal;font-variant:normal;font-weight:normal;font-stretch:normal;font-size:3.52777767px;font-family:'Nimbus Roman';-inkscape-font-specification:'Nimbus Roman, Normal';font-variant-ligatures:normal;font-variant-caps:normal;font-variant-numeric:normal;font-feature-settings:normal;text-align:center;writing-mode:lr-tb;text-anchor:middle;stroke-width:0.26458332"
           id="flowPara7836">FC layer with 1 units, lin activation fn</flowPara></flowRoot>    </g>
    <g
       id="g7848"
       transform="translate(-17.724402,8.7091206)">
      <rect
         style="opacity:1;fill:#e6e6e6;fill-opacity:1;stroke:#000000;stroke-width:0.26499999;stroke-miterlimit:4;stroke-dasharray:none;stroke-dashoffset:0;stroke-opacity:1"
         id="rect7842"
         width="19.735001"
         height="9.7350006"
         x="187.17776"
         y="23.11414" />
      <text
         id="text7846"
         y="29.161682"
         x="191.00342"
         style="font-style:normal;font-variant:normal;font-weight:normal;font-stretch:normal;font-size:3.52777767px;line-height:1.25;font-family:'Nimbus Roman';-inkscape-font-specification:'Nimbus Roman, ';letter-spacing:0px;word-spacing:0px;fill:#000000;fill-opacity:1;stroke:none;stroke-width:0.26458332"
         xml:space="preserve"><tspan
           style="stroke-width:0.26458332"
           y="29.161682"
           x="191.00342"
           id="tspan7844"
           sodipodi:role="line">Softmax</tspan></text>
    </g>
    <rect
       y="31.823259"
       x="196.78754"
       height="9.7350006"
       width="9.7349997"
       id="rect7850"
       style="opacity:1;fill:#ffffff;fill-opacity:1;stroke:#000000;stroke-width:0.26499999;stroke-miterlimit:4;stroke-dasharray:none;stroke-dashoffset:0;stroke-opacity:1" />
    <text
       xml:space="preserve"
       style="font-style:normal;font-variant:normal;font-weight:normal;font-stretch:normal;font-size:3.52777767px;line-height:1.25;font-family:'Nimbus Roman';-inkscape-font-specification:'Nimbus Roman, ';letter-spacing:0px;word-spacing:0px;fill:#000000;fill-opacity:1;stroke:none;stroke-width:0.26458332"
       x="200.40373"
       y="37.103245"
       id="text7856"><tspan
         sodipodi:role="line"
         id="tspan7854"
         x="200.40373"
         y="37.103245"
         style="font-style:italic;stroke-width:0.26458332">a<tspan
   id="tspan7852"
   style="font-size:64.99999762%;baseline-shift:sub">t</tspan></tspan></text>
    <g
       id="g7870"
       transform="translate(1.7157649,-9.0429286)">
      <rect
         y="41.924522"
         x="126.01215"
         height="9.7350006"
         width="34.735001"
         id="rect7860"
         style="opacity:1;fill:#e6e6e6;fill-opacity:1;stroke:#000000;stroke-width:0.26499999;stroke-miterlimit:4;stroke-dasharray:none;stroke-dashoffset:0;stroke-opacity:1" />
      <flowRoot
         style="font-style:normal;font-variant:normal;font-weight:normal;font-stretch:normal;font-size:3.52777767px;line-height:1.25;font-family:'Nimbus Roman';-inkscape-font-specification:'Nimbus Roman, ';letter-spacing:0px;word-spacing:0px;fill:#000000;fill-opacity:1;stroke:none;stroke-width:0.26458332"
         id="flowRoot7868"
         xml:space="preserve"
         transform="translate(32.473247,-7.082643)"><flowRegion
           id="flowRegion7864"
           style="stroke-width:0.26458332"><rect
             y="49.775688"
             x="94.212509"
             height="8.6862574"
             width="33.408691"
             id="rect7862"
             style="stroke-width:0.26458332" /></flowRegion><flowPara
           id="flowPara7866"
           style="font-style:normal;font-variant:normal;font-weight:normal;font-stretch:normal;font-size:3.52777767px;font-family:'Nimbus Roman';-inkscape-font-specification:'Nimbus Roman, Normal';font-variant-ligatures:normal;font-variant-caps:normal;font-variant-numeric:normal;font-feature-settings:normal;text-align:center;writing-mode:lr-tb;text-anchor:middle;stroke-width:0.26458332">FC layer with 1 units, lin activation fn</flowPara></flowRoot>    </g>
    <g
       transform="translate(-16.666068,9.767454)"
       id="g7878">
      <rect
         y="23.11414"
         x="187.17776"
         height="9.7350006"
         width="19.735001"
         id="rect7872"
         style="opacity:1;fill:#e6e6e6;fill-opacity:1;stroke:#000000;stroke-width:0.26499999;stroke-miterlimit:4;stroke-dasharray:none;stroke-dashoffset:0;stroke-opacity:1" />
      <text
         xml:space="preserve"
         style="font-style:normal;font-variant:normal;font-weight:normal;font-stretch:normal;font-size:3.52777767px;line-height:1.25;font-family:'Nimbus Roman';-inkscape-font-specification:'Nimbus Roman, ';letter-spacing:0px;word-spacing:0px;fill:#000000;fill-opacity:1;stroke:none;stroke-width:0.26458332"
         x="191.00342"
         y="29.161682"
         id="text7876"><tspan
           sodipodi:role="line"
           id="tspan7874"
           x="191.00342"
           y="29.161682"
           style="stroke-width:0.26458332">Softmax</tspan></text>
    </g>
    <g
       id="g7942"
       transform="translate(4.2333335)">
      <rect
         y="32.881592"
         x="193.61259"
         height="9.7350006"
         width="9.7349997"
         id="rect7880"
         style="opacity:1;fill:#ffffff;fill-opacity:1;stroke:#000000;stroke-width:0.26499999;stroke-miterlimit:4;stroke-dasharray:none;stroke-dashoffset:0;stroke-opacity:1" />
      <text
         xml:space="preserve"
         style="font-style:normal;font-variant:normal;font-weight:normal;font-stretch:normal;font-size:3.52777767px;line-height:1.25;font-family:'Nimbus Roman';-inkscape-font-specification:'Nimbus Roman, ';letter-spacing:0px;word-spacing:0px;fill:#000000;fill-opacity:1;stroke:none;stroke-width:0.26458332"
         x="197.22879"
         y="38.161579"
         id="text7886"><tspan
           sodipodi:role="line"
           id="tspan7884"
           x="197.22879"
           y="38.161579"
           style="font-style:italic;stroke-width:0.26458332">a<tspan
   id="tspan7882"
   style="font-size:64.99999762%;baseline-shift:sub">t</tspan></tspan></text>
    </g>
    <g
       id="g7900"
       transform="translate(0.65743155,8.6620229)">
      <rect
         y="41.924522"
         x="126.01215"
         height="9.7350006"
         width="34.735001"
         id="rect7890"
         style="opacity:1;fill:#e6e6e6;fill-opacity:1;stroke:#000000;stroke-width:0.26499999;stroke-miterlimit:4;stroke-dasharray:none;stroke-dashoffset:0;stroke-opacity:1" />
      <flowRoot
         style="font-style:normal;font-variant:normal;font-weight:normal;font-stretch:normal;font-size:3.52777767px;line-height:1.25;font-family:'Nimbus Roman';-inkscape-font-specification:'Nimbus Roman, ';letter-spacing:0px;word-spacing:0px;fill:#000000;fill-opacity:1;stroke:none;stroke-width:0.26458332"
         id="flowRoot7898"
         xml:space="preserve"
         transform="translate(32.473247,-7.082643)"><flowRegion
           id="flowRegion7894"
           style="stroke-width:0.26458332"><rect
             y="49.775688"
             x="94.212509"
             height="8.6862574"
             width="33.408691"
             id="rect7892"
             style="stroke-width:0.26458332" /></flowRegion><flowPara
           id="flowPara7896"
           style="font-style:normal;font-variant:normal;font-weight:normal;font-stretch:normal;font-size:3.52777767px;font-family:'Nimbus Roman';-inkscape-font-specification:'Nimbus Roman, Normal';font-variant-ligatures:normal;font-variant-caps:normal;font-variant-numeric:normal;font-feature-settings:normal;text-align:center;writing-mode:lr-tb;text-anchor:middle;stroke-width:0.26458332">FC layer with 1 units, lin activation fn</flowPara></flowRoot>    </g>
    <rect
       style="opacity:1;fill:#ffffff;fill-opacity:1;stroke:#000000;stroke-width:0.26499999;stroke-miterlimit:4;stroke-dasharray:none;stroke-dashoffset:0;stroke-opacity:1"
       id="rect7902"
       width="9.7349997"
       height="9.7350006"
       x="169.27089"
       y="50.63081" />
    <text
       id="text7908"
       y="55.910797"
       x="172.88708"
       style="font-style:normal;font-variant:normal;font-weight:normal;font-stretch:normal;font-size:3.52777767px;line-height:1.25;font-family:'Nimbus Roman';-inkscape-font-specification:'Nimbus Roman, ';letter-spacing:0px;word-spacing:0px;fill:#000000;fill-opacity:1;stroke:none;stroke-width:0.26458332"
       xml:space="preserve"><tspan
         style="font-style:italic;stroke-width:0.26458332"
         y="55.910797"
         x="172.88708"
         id="tspan7906"
         sodipodi:role="line">b<tspan
   style="font-size:64.99999762%;baseline-shift:sub"
   id="tspan7904">t</tspan></tspan></text>
    <g
       transform="translate(1.7157649,9.7203563)"
       id="g7922">
      <rect
         style="opacity:1;fill:#e6e6e6;fill-opacity:1;stroke:#000000;stroke-width:0.26499999;stroke-miterlimit:4;stroke-dasharray:none;stroke-dashoffset:0;stroke-opacity:1"
         id="rect7912"
         width="34.735001"
         height="9.7350006"
         x="126.01215"
         y="41.924522" />
      <flowRoot
         transform="translate(32.473247,-7.082643)"
         xml:space="preserve"
         id="flowRoot7920"
         style="font-style:normal;font-variant:normal;font-weight:normal;font-stretch:normal;font-size:3.52777767px;line-height:1.25;font-family:'Nimbus Roman';-inkscape-font-specification:'Nimbus Roman, ';letter-spacing:0px;word-spacing:0px;fill:#000000;fill-opacity:1;stroke:none;stroke-width:0.26458332"><flowRegion
           style="stroke-width:0.26458332"
           id="flowRegion7916"><rect
             style="stroke-width:0.26458332"
             id="rect7914"
             width="33.408691"
             height="8.6862574"
             x="94.212509"
             y="49.775688" /></flowRegion><flowPara
           style="font-style:normal;font-variant:normal;font-weight:normal;font-stretch:normal;font-size:3.52777767px;font-family:'Nimbus Roman';-inkscape-font-specification:'Nimbus Roman, Normal';font-variant-ligatures:normal;font-variant-caps:normal;font-variant-numeric:normal;font-feature-settings:normal;text-align:center;writing-mode:lr-tb;text-anchor:middle;stroke-width:0.26458332"
           id="flowPara7918">FC layer with 1 units, lin activation fn</flowPara></flowRoot>    </g>
    <rect
       y="51.689144"
       x="170.32922"
       height="9.7350006"
       width="9.7349997"
       id="rect7924"
       style="opacity:1;fill:#ffffff;fill-opacity:1;stroke:#000000;stroke-width:0.26499999;stroke-miterlimit:4;stroke-dasharray:none;stroke-dashoffset:0;stroke-opacity:1" />
    <text
       xml:space="preserve"
       style="font-style:normal;font-variant:normal;font-weight:normal;font-stretch:normal;font-size:3.52777767px;line-height:1.25;font-family:'Nimbus Roman';-inkscape-font-specification:'Nimbus Roman, ';letter-spacing:0px;word-spacing:0px;fill:#000000;fill-opacity:1;stroke:none;stroke-width:0.26458332"
       x="173.94542"
       y="56.969131"
       id="text7930"><tspan
         sodipodi:role="line"
         id="tspan7928"
         x="173.94542"
         y="56.969131"
         style="font-style:italic;stroke-width:0.26458332">b<tspan
   id="tspan7926"
   style="font-size:64.99999762%;baseline-shift:sub">t</tspan></tspan></text>
  </g>
</svg>
