\relax 
\providecommand\hyper@newdestlabel[2]{}
\providecommand\HyperFirstAtBeginDocument{\AtBeginDocument}
\HyperFirstAtBeginDocument{\ifx\hyper@anchor\@undefined
\global\let\oldcontentsline\contentsline
\gdef\contentsline#1#2#3#4{\oldcontentsline{#1}{#2}{#3}}
\global\let\oldnewlabel\newlabel
\gdef\newlabel#1#2{\newlabelxx{#1}#2}
\gdef\newlabelxx#1#2#3#4#5#6{\oldnewlabel{#1}{{#2}{#3}}}
\AtEndDocument{\ifx\hyper@anchor\@undefined
\let\contentsline\oldcontentsline
\let\newlabel\oldnewlabel
\fi}
\fi}
\global\let\hyper@last\relax 
\gdef\HyperFirstAtBeginDocument#1{#1}
\providecommand*\HyPL@Entry[1]{}
\citation{DBLP:journals/corr/KanskySMELLDSPG17}
\citation{chaslot_winands_uiterwijk_herik_bouzy_2007}
\citation{SUTTON1999181}
\citation{Bacon2016TheOA}
\bibdata{references}
\bibcite{DBLP:journals/corr/KanskySMELLDSPG17}{1}
\bibcite{chaslot_winands_uiterwijk_herik_bouzy_2007}{2}
\bibcite{SUTTON1999181}{3}
\bibcite{Bacon2016TheOA}{4}
\bibstyle{unsrt}
\HyPL@Entry{0<</P()>>}
