\begin{thebibliography}{1}

\bibitem{DBLP:journals/corr/KanskySMELLDSPG17}
Ken Kansky, Tom Silver, David~A. M{\'{e}}ly, Mohamed Eldawy, Miguel
  L{\'{a}}zaro{-}Gredilla, Xinghua Lou, Nimrod Dorfman, Szymon Sidor, D.~Scott
  Phoenix, and Dileep George.
\newblock Schema networks: Zero-shot transfer with a generative causal model of
  intuitive physics.
\newblock {\em CoRR}, abs/1706.04317, 2017.

\bibitem{chaslot_winands_uiterwijk_herik_bouzy_2007}
G.M.J.B. Chaslot, M.H.M. Winands, J.W.H.M. Uiterwijk, H.J. Van~Den Herik, and
  B.~Bouzy.
\newblock Progressive strategies for monte-carlo tree search.
\newblock {\em Information Sciences 2007}, page 655–661, 2007.

\bibitem{SUTTON1999181}
Richard~S. Sutton, Doina Precup, and Satinder Singh.
\newblock Between {MDPs} and {semi-MDPs}: A framework for temporal abstraction
  in reinforcement learning.
\newblock {\em Artificial Intelligence}, 112(1):181 -- 211, 1999.

\bibitem{Bacon2016TheOA}
Pierre-Luc Bacon, Jean Harb, and Doina Precup.
\newblock The option-critic architecture.
\newblock In {\em AAAI}, 2016.

\end{thebibliography}
