This is BibTeX, Version 0.99d (TeX Live 2018)
Capacity: max_strings=100000, hash_size=100000, hash_prime=85009
The top-level auxiliary file: main.aux
The style file: unsrt.bst
Database file #1: references.bib
You've used 4 entries,
            1791 wiz_defined-function locations,
            472 strings with 4445 characters,
and the built_in function-call counts, 1119 in all, are:
= -- 88
> -- 71
< -- 1
+ -- 25
- -- 21
* -- 72
:= -- 180
add.period$ -- 12
call.type$ -- 4
change.case$ -- 4
chr.to.int$ -- 0
cite$ -- 4
duplicate$ -- 57
empty$ -- 92
format.name$ -- 21
if$ -- 253
int.to.chr$ -- 0
int.to.str$ -- 4
missing$ -- 4
newline$ -- 23
num.names$ -- 4
pop$ -- 13
preamble$ -- 1
purify$ -- 0
quote$ -- 0
skip$ -- 39
stack$ -- 0
substring$ -- 45
swap$ -- 24
text.length$ -- 1
text.prefix$ -- 0
top$ -- 0
type$ -- 0
warning$ -- 0
while$ -- 6
width$ -- 5
write$ -- 45
