\relax 
\providecommand\hyper@newdestlabel[2]{}
\providecommand\HyperFirstAtBeginDocument{\AtBeginDocument}
\HyperFirstAtBeginDocument{\ifx\hyper@anchor\@undefined
\global\let\oldcontentsline\contentsline
\gdef\contentsline#1#2#3#4{\oldcontentsline{#1}{#2}{#3}}
\global\let\oldnewlabel\newlabel
\gdef\newlabel#1#2{\newlabelxx{#1}#2}
\gdef\newlabelxx#1#2#3#4#5#6{\oldnewlabel{#1}{{#2}{#3}}}
\AtEndDocument{\ifx\hyper@anchor\@undefined
\let\contentsline\oldcontentsline
\let\newlabel\oldnewlabel
\fi}
\fi}
\global\let\hyper@last\relax 
\gdef\HyperFirstAtBeginDocument#1{#1}
\providecommand*\HyPL@Entry[1]{}
\citation{DBLP:journals/corr/KanskySMELLDSPG17}
\citation{DBLP:journals/corr/abs-1207-4708}
\HyPL@Entry{0<</S/D>>}
\@writefile{toc}{\contentsline {section}{\numberline {1}Introduction}{1}{section.1}\protected@file@percent }
\@writefile{toc}{\contentsline {section}{\numberline {2}Preliminary Research}{1}{section.2}\protected@file@percent }
\newlabel{sec:preliminary}{{2}{1}{Preliminary Research}{section.2}{}}
\@writefile{lof}{\contentsline {figure}{\numberline {1}{\ignorespaces Goal-based hierarchical agent.}}{1}{figure.1}\protected@file@percent }
\@writefile{lof}{\contentsline {figure}{\numberline {2}{\ignorespaces Subgoals.}}{1}{figure.2}\protected@file@percent }
\@writefile{loa}{\contentsline {algorithm}{\numberline {1}{\ignorespaces Pseudocode for each hierarchical learner thread}}{2}{algorithm.1}\protected@file@percent }
\newlabel{alg:goals}{{1}{2}{Preliminary Research}{algorithm.1}{}}
\@writefile{toc}{\contentsline {subsection}{\numberline {2.1}Results}{2}{subsection.2.1}\protected@file@percent }
\@writefile{lof}{\contentsline {figure}{\numberline {3}{\ignorespaces Mazes.}}{2}{figure.3}\protected@file@percent }
\bibdata{references}
\bibcite{DBLP:journals/corr/abs-1207-4708}{1}
\bibcite{DBLP:journals/corr/KanskySMELLDSPG17}{2}
\bibcite{chaslot_winands_uiterwijk_herik_bouzy_2007}{3}
\bibcite{SUTTON1999181}{4}
\bibcite{7860383}{5}
\@writefile{lof}{\contentsline {figure}{\numberline {4}{\ignorespaces A3C results.}}{3}{figure.4}\protected@file@percent }
\newlabel{fig:a3c_results}{{4}{3}{A3C results}{figure.4}{}}
\@writefile{lof}{\contentsline {figure}{\numberline {5}{\ignorespaces Goal-based hierarchical agent results.}}{3}{figure.5}\protected@file@percent }
\newlabel{fig:goal_results}{{5}{3}{Goal-based hierarchical agent results}{figure.5}{}}
\@writefile{toc}{\contentsline {section}{\numberline {3}Proposed Research}{3}{section.3}\protected@file@percent }
\newlabel{sec:proposed}{{3}{3}{Proposed Research}{section.3}{}}
\@writefile{lof}{\contentsline {figure}{\numberline {6}{\ignorespaces Agent hierarchy.}}{3}{figure.6}\protected@file@percent }
\@writefile{loa}{\contentsline {algorithm}{\numberline {2}{\ignorespaces Pseudocode for each hierarchical learner thread}}{3}{algorithm.2}\protected@file@percent }
\newlabel{alg:hier}{{2}{3}{Proposed Research}{algorithm.2}{}}
\bibcite{Bacon2016TheOA}{6}
\bibstyle{unsrt}
